Oficina de Tidyverse
…
```r
as_tibble(mtcars[, 1:6])
```

```
## # A tibble: 32 × 6
##      mpg   cyl  disp    hp  drat    wt
##    <dbl> <dbl> <dbl> <dbl> <dbl> <dbl>
##  1  21       6  160    110  3.9   2.62
##  2  21       6  160    110  3.9   2.88
##  3  22.8     4  108     93  3.85  2.32
##  4  21.4     6  258    110  3.08  3.22
##  5  18.7     8  360    175  3.15  3.44
##  6  18.1     6  225    105  2.76  3.46
##  7  14.3     8  360    245  3.21  3.57
##  8  24.4     4  147.    62  3.69  3.19
##  9  22.8     4  141.    95  3.92  3.15
## 10  19.2     6  168.   123  3.92  3.44
## # … with 22 more rows
```
…
---
# Dados
Vamos usar o banco de dados iris para ilustrar as funções do `dplyr`:

```r
# transformando antes para tibble
iris <- as_tibble(iris) %>% rowid_to_column()
iris
```

```
## # A tibble: 150 × 6
##    rowid Sepal.Length Sepal.Width Petal.Length Petal.Width Species
##    <int>        <dbl>       <dbl>        <dbl>       <dbl> <fct>  
##  1     1          5.1         3.5          1.4         0.2 setosa 
##  2     2          4.9         3            1.4         0.2 setosa 
##  3     3          4.7         3.2          1.3         0.2 setosa 
##  4     4          4.6         3.1          1.5         0.2 setosa 
##  5     5          5           3.6          1.4         0.2 setosa 
##  6     6          5.4         3.9          1.7         0.4 setosa 
##  7     7          4.6         3.4          1.4         0.3 setosa 
##  8     8          5           3.4          1.5         0.2 setosa 
##  9     9          4.4         2.9          1.4         0.2 setosa 
## 10    10          4.9         3.1          1.5         0.1 setosa 
## # … with 140 more rows
```

---
# Selecionando colunas

- Usando a função `select()`
- Primeiro argumento é a base e os demais são as variáveis a serem selecionadas
.pull-left[
Selecionando uma coluna:

```r
iris %>% select(Sepal.Length)
```

```
## # A tibble: 150 × 1
##    Sepal.Length
##           <dbl>
##  1          5.1
##  2          4.9
##  3          4.7
##  4          4.6
##  5          5  
##  6          5.4
##  7          4.6
##  8          5  
##  9          4.4
## 10          4.9
## # … with 140 more rows
```
]
.pull-right[
Selecionando mais de uma:

```r
# iris %>% select(1,2)
iris %>% select(Sepal.Length, Sepal.Width)
```

```
## # A tibble: 150 × 2
##    Sepal.Length Sepal.Width
##           <dbl>       <dbl>
##  1          5.1         3.5
##  2          4.9         3  
##  3          4.7         3.2
##  4          4.6         3.1
##  5          5           3.6
##  6          5.4         3.9
##  7          4.6         3.4
##  8          5           3.4
##  9          4.4         2.9
## 10          4.9         3.1
## # … with 140 more rows
```
]

---
# Selecionando colunas

Selecionando um intervalo de variaveis

```r
iris %>% select(Sepal.Length:Petal.Length)
```

```
## # A tibble: 150 × 3
##    Sepal.Length Sepal.Width Petal.Length
##           <dbl>       <dbl>        <dbl>
##  1          5.1         3.5          1.4
##  2          4.9         3            1.4
##  3          4.7         3.2          1.3
##  4          4.6         3.1          1.5
##  5          5           3.6          1.4
##  6          5.4         3.9          1.7
##  7          4.6         3.4          1.4
##  8          5           3.4          1.5
##  9          4.4         2.9          1.4
## 10          4.9         3.1          1.5
## # … with 140 more rows
```

---
# Selecionando colunas

Também podemos remover variaveis:

```r
iris %>% select(-Sepal.Length)
```

```
## # A tibble: 150 × 5
##    rowid Sepal.Width Petal.Length Petal.Width Species
##    <int>       <dbl>        <dbl>       <dbl> <fct>  
##  1     1         3.5          1.4         0.2 setosa 
##  2     2         3            1.4         0.2 setosa 
##  3     3         3.2          1.3         0.2 setosa 
##  4     4         3.1          1.5         0.2 setosa 
##  5     5         3.6          1.4         0.2 setosa 
##  6     6         3.9          1.7         0.4 setosa 
##  7     7         3.4          1.4         0.3 setosa 
##  8     8         3.4          1.5         0.2 setosa 
##  9     9         2.9          1.4         0.2 setosa 
## 10    10         3.1          1.5         0.1 setosa 
## # … with 140 more rows
```
…
  * `starts_with()`: colunas que começam com um prefixo
  
  * `ends_with()`: colunas que terminam com um sufixo
  
  * `contains()`: colunas que contêm uma string
  
  * `last_col()`: última coluna

```r
iris %>% select(starts_with("Petal"))
```

```
## # A tibble: 150 × 2
##    Petal.Length Petal.Width
##           <dbl>       <dbl>
##  1          1.4         0.2
##  2          1.4         0.2
##  3          1.3         0.2
##  4          1.5         0.2
##  5          1.4         0.2
##  6          1.7         0.4
##  7          1.4         0.3
##  8          1.5         0.2
##  9          1.4         0.2
## 10          1.5         0.1
## # … with 140 more rows
```
…
- Com `arrange()`ordenamos as linhas de acordo com alguma variável de interesse:

  - Variável categórica: ordena por ordem alfabética
  
  - Variável numérica: ordena do menor para o maior
  
  - Varíavel fator: ordena pelos níveis do fator

```r
iris %>% arrange(Sepal.Length)
```

```
## # A tibble: 150 × 6
##    rowid Sepal.Length Sepal.Width Petal.Length Petal.Width Species
##    <int>        <dbl>       <dbl>        <dbl>       <dbl> <fct>  
##  1    14          4.3         3            1.1         0.1 setosa 
##  2     9          4.4         2.9          1.4         0.2 setosa 
##  3    39          4.4         3            1.3         0.2 setosa 
##  4    43          4.4         3.2          1.3         0.2 setosa 
##  5    42          4.5         2.3          1.3         0.3 setosa 
##  6     4          4.6         3.1          1.5         0.2 setosa 
##  7     7          4.6         3.4          1.4         0.3 setosa 
##  8    23          4.6         3.6          1           0.2 setosa 
##  9    48          4.6         3.2          1.4         0.2 setosa 
## 10     3          4.7         3.2          1.3         0.2 setosa 
## # … with 140 more rows
```

---
# Ordenando a base

Ordenando de forma decrescente

```r
iris %>% arrange(desc(Sepal.Length))
```

```
## # A tibble: 150 × 6
##    rowid Sepal.Length Sepal.Width Petal.Length Petal.Width Species  
##    <int>        <dbl>       <dbl>        <dbl>       <dbl> <fct>    
##  1   132          7.9         3.8          6.4         2   virginica
##  2   118          7.7         3.8          6.7         2.2 virginica
##  3   119          7.7         2.6          6.9         2.3 virginica
##  4   123          7.7         2.8          6.7         2   virginica
##  5   136          7.7         3            6.1         2.3 virginica
##  6   106          7.6         3            6.6         2.1 virginica
##  7   131          7.4         2.8          6.1         1.9 virginica
##  8   108          7.3         2.9          6.3         1.8 virginica
##  9   110          7.2         3.6          6.1         2.5 virginica
## 10   126          7.2         3.2          6           1.8 virginica
## # … with 140 more rows
```

---
# Ordenando a base

Ordenando por mais de uma variável

```r
iris %>% arrange(Species, Sepal.Length)
```

```
## # A tibble: 150 × 6
##    rowid Sepal.Length Sepal.Width Petal.Length Petal.Width Species
##    <int>        <dbl>       <dbl>        <dbl>       <dbl> <fct>  
##  1    14          4.3         3            1.1         0.1 setosa 
##  2     9          4.4         2.9          1.4         0.2 setosa 
##  3    39          4.4         3            1.3         0.2 setosa 
##  4    43          4.4         3.2          1.3         0.2 setosa 
##  5    42          4.5         2.3          1.3         0.3 setosa 
##  6     4          4.6         3.1          1.5         0.2 setosa 
##  7     7          4.6         3.4          1.4         0.3 setosa 
##  8    23          4.6         3.6          1           0.2 setosa 
##  9    48          4.6         3.2          1.4         0.2 setosa 
## 10     3          4.7         3.2          1.3         0.2 setosa 
## # … with 140 more rows
```

---
# Filtrando linhas
- Usamos `filter()` para selecionar as linhas de acordo com certa condição (filtro)

```r
iris %>% filter(Sepal.Length > 6)
```

```
## # A tibble: 61 × 6
##    rowid Sepal.Length Sepal.Width Petal.Length Petal.Width Species   
##    <int>        <dbl>       <dbl>        <dbl>       <dbl> <fct>     
##  1    51          7           3.2          4.7         1.4 versicolor
##  2    52          6.4         3.2          4.5         1.5 versicolor
##  3    53          6.9         3.1          4.9         1.5 versicolor
##  4    55          6.5         2.8          4.6         1.5 versicolor
##  5    57          6.3         3.3          4.7         1.6 versicolor
##  6    59          6.6         2.9          4.6         1.3 versicolor
##  7    64          6.1         2.9          4.7         1.4 versicolor
##  8    66          6.7         3.1          4.4         1.4 versicolor
##  9    69          6.2         2.2          4.5         1.5 versicolor
## 10    72          6.1         2.8          4           1.3 versicolor
## # … with 51 more rows
```

---
# Filtrando linhas
- Combinando filter, select e arrange para analisar os individuos que tem tamanho de sépala maior que 6:

```r
iris %>% filter(Sepal.Length > 6) %>%
  select(rowid, Sepal.Length) %>%
  arrange(desc(Sepal.Length))
```

```
## # A tibble: 61 × 2
##    rowid Sepal.Length
##    <int>        <dbl>
##  1   132          7.9
##  2   118          7.7
##  3   119          7.7
##  4   123          7.7
##  5   136          7.7
##  6   106          7.6
##  7   131          7.4
##  8   108          7.3
##  9   110          7.2
## 10   126          7.2
## # … with 51 more rows
```
…
---
# Filtrando linhas

- Filtrando por mais de uma categoria

```r
iris %>% filter(Species %in% c("setosa", "versicolor"))
```

```
## # A tibble: 100 × 6
##    rowid Sepal.Length Sepal.Width Petal.Length Petal.Width Species
##    <int>        <dbl>       <dbl>        <dbl>       <dbl> <fct>  
##  1     1          5.1         3.5          1.4         0.2 setosa 
##  2     2          4.9         3            1.4         0.2 setosa 
##  3     3          4.7         3.2          1.3         0.2 setosa 
##  4     4          4.6         3.1          1.5         0.2 setosa 
##  5     5          5           3.6          1.4         0.2 setosa 
##  6     6          5.4         3.9          1.7         0.4 setosa 
##  7     7          4.6         3.4          1.4         0.3 setosa 
##  8     8          5           3.4          1.5         0.2 setosa 
##  9     9          4.4         2.9          1.4         0.2 setosa 
## 10    10          4.9         3.1          1.5         0.1 setosa 
## # … with 90 more rows
```
…
- Função `mutate()` para criar e modificar colunas

- Primeiro modificando:

```r
iris %>%
  mutate(
    Sepal.Length = Sepal.Length*10, 
    Petal.Length = Petal.Length*10
  )
```

```
## # A tibble: 150 × 6
##    rowid Sepal.Length Sepal.Width Petal.Length Petal.Width Species
##    <int>        <dbl>       <dbl>        <dbl>       <dbl> <fct>  
##  1     1           51         3.5           14         0.2 setosa 
##  2     2           49         3             14         0.2 setosa 
##  3     3           47         3.2           13         0.2 setosa 
##  4     4           46         3.1           15         0.2 setosa 
##  5     5           50         3.6           14         0.2 setosa 
##  6     6           54         3.9           17         0.4 setosa 
##  7     7           46         3.4           14         0.3 setosa 
##  8     8           50         3.4           15         0.2 setosa 
##  9     9           44         2.9           14         0.2 setosa 
## 10    10           49         3.1           15         0.1 setosa 
## # … with 140 more rows
```

---
# Modificando colunas
- Criando colunas:

```r
iris %>% 
  mutate(
    Sepal.Length_mm = Sepal.Length*10, 
    Petal.Length_mm = Petal.Length*10
  )
```

```
## # A tibble: 150 × 8
##    rowid Sepal.Length Sepal.Width Petal.Length Petal.Width Species
##    <int>        <dbl>       <dbl>        <dbl>       <dbl> <fct>  
##  1     1          5.1         3.5          1.4         0.2 setosa 
##  2     2          4.9         3            1.4         0.2 setosa 
##  3     3          4.7         3.2          1.3         0.2 setosa 
##  4     4          4.6         3.1          1.5         0.2 setosa 
##  5     5          5           3.6          1.4         0.2 setosa 
##  6     6          5.4         3.9          1.7         0.4 setosa 
##  7     7          4.6         3.4          1.4         0.3 setosa 
##  8     8          5           3.4          1.5         0.2 setosa 
##  9     9          4.4         2.9          1.4         0.2 setosa 
## 10    10          4.9         3.1          1.5         0.1 setosa 
## # … with 140 more rows, and 2 more variables: Sepal.Length_mm <dbl>,
## #   Petal.Length_mm <dbl>
```
…
---
# Pivotagem

- `pivot_longer()`: alonga/empilha os dados:

```r
iris_longer <- iris %>% 
  pivot_longer(c(-Species, -rowid), names_to = "partes", values_to = "medidas")
iris_longer
```

```
## # A tibble: 600 × 4
##    rowid Species partes       medidas
##    <int> <fct>   <chr>          <dbl>
##  1     1 setosa  Sepal.Length     5.1
##  2     1 setosa  Sepal.Width      3.5
##  3     1 setosa  Petal.Length     1.4
##  4     1 setosa  Petal.Width      0.2
##  5     2 setosa  Sepal.Length     4.9
##  6     2 setosa  Sepal.Width      3  
##  7     2 setosa  Petal.Length     1.4
##  8     2 setosa  Petal.Width      0.2
##  9     3 setosa  Sepal.Length     4.7
## 10     3 setosa  Sepal.Width      3.2
## # … with 590 more rows
```

---
# Pivotagem

- `pivot_wider()`: alarga/espalha os dados:

```r
iris_longer %>% 
  pivot_wider(id_cols = rowid, names_from = partes, values_from = medidas)
```

```
## # A tibble: 150 × 5
##    rowid Sepal.Length Sepal.Width Petal.Length Petal.Width
##    <int>        <dbl>       <dbl>        <dbl>       <dbl>
##  1     1          5.1         3.5          1.4         0.2
##  2     2          4.9         3            1.4         0.2
##  3     3          4.7         3.2          1.3         0.2
##  4     4          4.6         3.1          1.5         0.2
##  5     5          5           3.6          1.4         0.2
##  6     6          5.4         3.9          1.7         0.4
##  7     7          4.6         3.4          1.4         0.3
##  8     8          5           3.4          1.5         0.2
##  9     9          4.4         2.9          1.4         0.2
## 10    10          4.9         3.1          1.5         0.1
## # … with 140 more rows
```
…
